<?xml version="1.0" encoding="utf-8"?>
<!-- Generator: Adobe Illustrator 22.0.0, SVG Export Plug-In . SVG Version: 6.00 Build 0)  -->
<svg version="1.1" id="Layer_1" xmlns="http://www.w3.org/2000/svg" xmlns:xlink="http://www.w3.org/1999/xlink" x="0px" y="0px"
	 viewBox="0 0 16.3 24.2" style="enable-background:new 0 0 16.3 24.2;" xml:space="preserve">
<style type="text/css">
	.st0{fill:#F6BB42;}
</style>
<g id="arrow-copy-5">
	<g id="Triangle">
		<path class="st0" d="M3.2,23.4c-0.5,0-1.1-0.2-1.5-0.6C0.9,22,1,20.7,1.8,20l8.4-7.9L1.8,4.2C1,3.5,0.9,2.2,1.7,1.4s2-0.9,2.8-0.1
			l10,9.3c0.4,0.4,0.6,0.9,0.6,1.5s-0.2,1.1-0.6,1.5l-10,9.3C4.1,23.3,3.7,23.4,3.2,23.4z"/>
	</g>
</g>
</svg>
