<?xml version="1.0" encoding="utf-8"?>
<!-- Generator: Adobe Illustrator 16.0.0, SVG Export Plug-In . SVG Version: 6.00 Build 0)  -->
<!DOCTYPE svg PUBLIC "-//W3C//DTD SVG 1.1//EN" "http://www.w3.org/Graphics/SVG/1.1/DTD/svg11.dtd">
<svg version="1.1" id="Layer_1" xmlns="http://www.w3.org/2000/svg" xmlns:xlink="http://www.w3.org/1999/xlink" x="0px" y="0px"
	 width="512px" height="512px" viewBox="0 0 512 512" style="enable-background:new 0 0 512 512;" xml:space="preserve">
<style type="text/css">
<![CDATA[
	.st0{fill:#5FBDEB;}
]]>
</style>
<path class="st0" d="M256,0C167.6,0,96,71.6,96,160c0,23.9,5.3,46.6,14.6,66.9l89.9,256.6c5.8,12.7,27,28.5,55.5,28.5
	c25.5,0,46.7-15.8,52.5-28.5l92.9-256.6c9.4-20.3,14.6-43,14.6-66.9C416,71.6,344.4,0,256,0z M256,238c-43.1,0-78-34.9-78-78
	s34.9-78,78-78s78,34.9,78,78S299.1,238,256,238z"/>
</svg>
