<?xml version="1.0" encoding="UTF-8" standalone="no"?>
<svg width="410px" height="490px" viewBox="0 0 410 490" version="1.1" xmlns="http://www.w3.org/2000/svg" xmlns:xlink="http://www.w3.org/1999/xlink">
    <!-- Generator: Sketch 50.2 (55047) - http://www.bohemiancoding.com/sketch -->
    <title>icon/search</title>
    <desc>Created with Sketch.</desc>
    <defs></defs>
    <g id="icon/search" stroke="none" stroke-width="1" fill="none" fill-rule="evenodd">
        <path d="M248.314,288.097 C226.98,302.687 202.106,310.398 176.363,310.398 C105.032,310.398 47,251.318 47,178.699 C47,106.08 105.032,47 176.363,47 C247.694,47 305.726,106.08 305.726,178.699 C305.726,220.141 286.145,259.666 253.333,284.479 C252.187,285.093 251.187,285.727 250.281,286.413 C249.639,286.899 248.994,287.451 248.314,288.097 M405.032,452.118 L296.87,309.064 C332.401,275.313 352.726,227.959 352.726,178.699 C352.726,80.164 273.61,0 176.363,0 C79.116,0 0,80.164 0,178.699 C0,277.234 79.116,357.398 176.363,357.398 C205.083,357.398 233.525,350.228 258.798,336.639 L367.543,480.462 C372.024,486.391 378.862,489.791 386.303,489.791 C391.451,489.791 396.346,488.147 400.46,485.034 C405.467,481.249 408.701,475.741 409.564,469.523 C410.428,463.306 408.818,457.124 405.032,452.118" id="Fill-1" fill="#FFFFFF"></path>
    </g>
</svg>