<?xml version="1.0" encoding="UTF-8"?>
<!DOCTYPE svg PUBLIC "-//W3C//DTD SVG 1.1//EN" "http://www.w3.org/Graphics/SVG/1.1/DTD/svg11.dtd">
<!-- Creator: CorelDRAW X8 -->
<svg xmlns="http://www.w3.org/2000/svg" xml:space="preserve" width="43.1143mm" height="23.528mm" version="1.1" style="shape-rendering:geometricPrecision; text-rendering:geometricPrecision; image-rendering:optimizeQuality; fill-rule:evenodd; clip-rule:evenodd"
viewBox="0 0 64 35"
 xmlns:xlink="http://www.w3.org/1999/xlink">
 <defs>
  <style type="text/css">
   <![CDATA[
    .str0 {stroke:white;stroke-width:1.10734}
    .fil4 {fill:none}
    .fil1 {fill:#000096}
    .fil3 {fill:#B60001}
    .fil2 {fill:white}
    .fil0 {fill:white}
   ]]>
  </style>
   <clipPath id="id0">
    <path d="M17 1l30 0c9,0 16,7 16,16l0 1c0,9 -7,16 -16,16l-30 0c-9,0 -16,-7 -16,-16l0 -1c0,-9 7,-16 16,-16z"/>
   </clipPath>
 </defs>
 <g id="Layer_x0020_1">
  <metadata id="CorelCorpID_0Corel-Layer"/>
  <path class="fil0" d="M17 1l30 0c9,0 16,7 16,16l0 1c0,9 -7,16 -16,16l-30 0c-9,0 -16,-7 -16,-16l0 -1c0,-9 7,-16 16,-16z"/>
  <g style="clip-path:url(#id0)">
   <g id="_2532436366272">
    <g>
     <polygon id="1" class="fil1" points="-8,23 75,23 75,11 -8,11 "/>
     <polygon class="fil2" points="-8,11 75,11 75,0 -8,0 "/>
     <polygon class="fil3" points="75,23 -8,23 -8,34 75,34 "/>
    </g>
   </g>
  </g>
  <path class="fil4 str0" d="M17 1l30 0c9,0 16,7 16,16l0 1c0,9 -7,16 -16,16l-30 0c-9,0 -16,-7 -16,-16l0 -1c0,-9 7,-16 16,-16z"/>
 </g>
</svg>
