<?xml version="1.0" encoding="UTF-8"?>
<!DOCTYPE svg PUBLIC "-//W3C//DTD SVG 1.1//EN" "http://www.w3.org/Graphics/SVG/1.1/DTD/svg11.dtd">
<!-- Creator: CorelDRAW X8 -->
<svg xmlns="http://www.w3.org/2000/svg" xml:space="preserve" width="43.1143mm" height="23.5281mm" version="1.1" style="shape-rendering:geometricPrecision; text-rendering:geometricPrecision; image-rendering:optimizeQuality; fill-rule:evenodd; clip-rule:evenodd"
viewBox="0 0 64 35"
 xmlns:xlink="http://www.w3.org/1999/xlink">
 <defs>
  <style type="text/css">
   <![CDATA[
    .str0 {stroke:white;stroke-width:1.11262}
    .fil4 {fill:none}
    .fil3 {fill:#00247D}
    .fil1 {fill:#CF142B}
    .fil2 {fill:white}
    .fil0 {fill:white}
   ]]>
  </style>
   <clipPath id="id0">
    <path d="M17 1l30 0c9,0 16,7 16,16l0 1c0,9 -7,16 -16,16l-30 0c-9,0 -16,-7 -16,-16l0 -1c0,-9 7,-16 16,-16z"/>
   </clipPath>
 </defs>
 <g id="Layer_x0020_1">
  <metadata id="CorelCorpID_0Corel-Layer"/>
  <path class="fil0" d="M17 1l30 0c9,0 16,7 16,16l0 1c0,9 -7,16 -16,16l-30 0c-9,0 -16,-7 -16,-16l0 -1c0,-9 7,-16 16,-16z"/>
  <g style="clip-path:url(#id0)">
   <g id="_2532537715888">
    <g>
     <polygon id="1" class="fil1" points="-2,13 -2,21 28,21 28,37 36,37 36,21 66,21 66,13 36,13 36,-3 28,-3 28,13 "/>
     <polygon class="fil2" points="66,10 51,10 66,1 66,-3 58,-3 39,8 39,-3 36,-3 36,13 66,13 "/>
     <polygon class="fil2" points="36,37 39,37 39,26 58,37 66,37 66,32 51,24 66,24 66,21 36,21 "/>
     <polygon class="fil2" points="-2,1 13,10 -2,10 -2,13 28,13 28,-3 25,-3 25,8 6,-3 -2,-3 "/>
     <polygon class="fil2" points="-2,24 13,24 -2,32 -2,37 6,37 25,26 25,37 28,37 28,21 -2,21 "/>
     <polygon class="fil3" points="25,-3 6,-3 25,8 "/>
     <polygon class="fil3" points="6,37 25,37 25,26 "/>
     <polygon class="fil3" points="58,-3 39,-3 39,8 "/>
     <polygon class="fil3" points="39,37 58,37 39,26 "/>
     <polygon class="fil3" points="-2,32 13,24 -2,24 "/>
     <polygon class="fil3" points="66,24 51,24 66,32 "/>
     <polygon class="fil3" points="-2,10 13,10 -2,1 "/>
     <polygon class="fil3" points="66,1 51,10 66,10 "/>
    </g>
   </g>
  </g>
  <path class="fil4 str0" d="M17 1l30 0c9,0 16,7 16,16l0 1c0,9 -7,16 -16,16l-30 0c-9,0 -16,-7 -16,-16l0 -1c0,-9 7,-16 16,-16z"/>
 </g>
</svg>
