<?xml version="1.0" encoding="utf-8"?>
<!-- Generator: Adobe Illustrator 22.0.0, SVG Export Plug-In . SVG Version: 6.00 Build 0)  -->
<svg version="1.1" id="Layer_1" xmlns="http://www.w3.org/2000/svg" xmlns:xlink="http://www.w3.org/1999/xlink" x="0px" y="0px"
	 viewBox="0 0 1464 374" style="enable-background:new 0 0 1464 374;" xml:space="preserve">
<style type="text/css">
	.st0{fill:#FFFFFF;}
</style>
<g id="Symbols">
	<g id="footer">
		<g id="Group-5">
			<path id="Fill-1" class="st0" d="M1464,221.1c-4.5-39.8-38.3-70.7-79.3-70.7c-5,0-9.9,0.5-14.6,1.4c-7.9-8.4-17.6-15-28.5-19.3
				c0.5-3.7,0.8-7.6,0.8-11.5c0-44.1-35.7-79.8-79.8-79.8c-27.4,0-51.6,13.8-66,34.9c-9-3.5-18.7-5.4-28.9-5.4
				c-28.7,0-53.9,15.2-68,38c-4.2,1.4-8.2,3.1-12,5.2c-9.2-15.5-23.6-27.6-40.7-34c-14-23.1-39.4-38.6-68.4-38.6
				c-22.6,0-43.1,9.4-57.6,24.6c-7.1-2-14.5-3.2-22.2-3.2c-25.8,0-48.8,12.3-63.3,31.3c-13.2-9.6-29.4-15.3-46.9-15.3
				c-6.4,0-12.7,0.8-18.7,2.2c-14.6-17.4-36.6-28.5-61.1-28.5c-34.5,0-64,22-75.1,52.7c-18.7-15.3-42.7-24.5-68.7-24.5
				c-46,0-85.3,28.6-101.1,69c-3.5-25.5-25.3-45.1-51.8-45.1c-4.6,0-9.1,0.7-13.3,1.8c0.1-31.2-23.8-55.1-53.2-55.1
				c-16.5,0-31.2,7.5-40.9,19.2c-1.1-0.6-2.2-1.1-3.3-1.6c0.2-2,0.3-4,0.3-6c0-34-27.6-61.6-61.6-61.6c-27.9,0-51.5,18.6-59,44
				c-7.4-3.3-15.6-5.2-24.2-5.2c-30.2,0-55.1,22.6-58.8,51.8c-39.2-0.2-67.5,28.1-67.5,63c0,5.6,0.7,11,2.1,16.1
				C13.7,177.1,0,195,0,216.2c0,0.1,0,52.4,0,156.8h1464V221.1z"/>
		</g>
	</g>
</g>
</svg>
