<?xml version="1.0" encoding="utf-8"?>
<!-- Generator: Adobe Illustrator 16.0.0, SVG Export Plug-In . SVG Version: 6.00 Build 0)  -->
<!DOCTYPE svg PUBLIC "-//W3C//DTD SVG 1.1//EN" "http://www.w3.org/Graphics/SVG/1.1/DTD/svg11.dtd">
<svg version="1.1" id="Layer_1" xmlns="http://www.w3.org/2000/svg" xmlns:xlink="http://www.w3.org/1999/xlink" x="0px" y="0px"
	 width="313.3px" height="80.7px" viewBox="37.7 184.5 313.3 80.7" style="enable-background:new 37.7 184.5 313.3 80.7;"
	 xml:space="preserve">
<style type="text/css">
<![CDATA[
	.st0{fill:#FFFFFF;}
]]>
</style>
<title>icon/user</title>
<desc>Created with Sketch.</desc>
<path class="st0" d="M351,215.6c0-15.7-12.7-28.4-28.4-28.4c-5.5,0-10.6,1.5-14.9,4.2c-6-4.4-13.4-7-21.3-7
	c-5.9,0-11.4,1.4-16.3,3.9c-4.2-2.1-8.9-3.3-13.9-3.3c-4.5,0-8.7,1-12.5,2.7c-4.5-2.1-9.6-3.2-14.9-3.2c-9.6,0-18.3,3.8-24.7,9.9
	c-2.6-0.7-5.3-1-8.2-1c-2.8,0-5.5,0.4-8.1,1c-4.6-6-11.9-9.9-20.1-9.9c-8,0-15.2,3.7-19.8,9.6c-1.8-0.4-3.6-0.7-5.5-0.7
	c-6.5,0-12.3,2.6-16.5,6.8c-4.4-9.1-13.8-15.4-24.6-15.4c-8.5,0-16.1,3.9-21.1,9.9c-4.5-4.3-10.6-6.9-17.3-6.9
	c-13.8,0-25,11.2-25,25c0,8.4,4.1,15.8,10.4,20.3c-0.3,1.5-0.4,3.1-0.4,4.7c0,15.1,12.2,27.3,27.3,27.3c10.2,0,19.1-5.6,23.8-13.9
	c4.7,7.3,12.9,12.2,22.2,12.2c7.6,0,14.5-3.2,19.3-8.4c5.4,4.6,12.3,7.4,20,7.4c7.5,0,14.5-2.7,19.8-7.2c4.7,2.5,10,4,15.7,4
	c7,0,13.5-2.2,18.9-6c4.3,1.8,9,2.9,14,2.9c6.8,0,13.1-1.9,18.5-5.1c5,5.1,11.9,8.2,19.6,8.2c4.5,0,8.7-1.1,12.4-2.9
	c2.3,0.5,4.8,0.7,7.2,0.7c6.1,0,11.9-1.5,17-4.2c5.1,4.7,11.8,7.5,19.2,7.5c15.7,0,28.4-12.7,28.4-28.4c0-2.8-0.4-5.5-1.2-8.1
	C350.6,221.1,351,218.4,351,215.6z"/>
</svg>
